[
  {
    "name": "Union Européenne",
    "img": "img/logo_ue.jpg",
    "link": "https://european-union.europa.eu/index_fr"
  },
  {
    "name": "Région Auvergne-Rhône-Alpes",
    "img": "img/logo_aura.jpg",
    "link": "https://www.auvergnerhonealpes.fr/"
  },
  {
    "name": "Fédération des CAE",
    "img": "img/logo_cae.png"
  }
]
